
{"productos":[
    
    {
        "codigo": "1234",
        "descripcion":"caja de bombones ",
        "unidad":"1",
        "cantidad":"100",
        "provedor":"nestle"
        
    
         
    },
    {
        "codigo": "5678",
        "descripcion":"coca cola de litro ",
        "unidad":"1",
        "cantidad":"50",
        "provedor":"coca cola"
    
         
    },
    {
        "codigo": "7777",
        "descripcion":"caja de cigarrillos",
        "unidad":"1",
        "cantidad":"15",
        "provedor":"malvoro"
         
    },
    {
        "codigo": "9090",
        "descripcion":"tarjeta claro ",
        "unidad":"1",
        "cantidad":"25",
        "provedor":"claro"
         
    },
    {
        "codigo": "5050",
        "descripcion":"pony malta ",
        "unidad":"1",
        "cantidad":"75",
        "provedor":"coca cola"
    
         
    },
    {
        "codigo": "7676",
        "descripcion":"gomitas ",
        "unidad":"1",
        "cantidad":"20",
        "provedor":"nestle"
         
    },
    {
        "codigo": "6969",
        "descripcion":"cafe ",
        "unidad":"1",
        "cantidad":"70",
        "provedor":"nestle"
    
         
    },
    {
        "codigo": "7575",
        "descripcion":"java de cerbeza ",
        "unidad":"12",
        "cantidad":"10",
        "provedor":"pilsener"
    
         
    },
    {
        "codigo": "0000",
        "descripcion":"gorra ",
        "unidad":"1",
        "cantidad":"5",
        "provedor":"lacoste"
    
         
    },
    {
        "codigo": "1234",
        "descripcion":"balon ",
        "unidad":"1",
        "cantidad":"2",
        "provedor":"adidas"
         
    }

  



]
}
